{
  "$schema": "https://docs.renovatebot.com/renovate-schema.json",
  "extends": ["config:recommended"],
  "packageRules": [
    {
      "matchDepTypes": ["dependencies", "devDependencies"],
      "matchUpdateTypes": ["patch", "minor", "major"]
    }
  ],
  "prHourlyLimit": 8,
  "prConcurrentLimit": 0
}
